/* XPM */
static char * ball2_xpm[] = {
"32 32 2 1",
" 	c None",
".	c #FFFFFF",
"                                ",
"                                ",
"            ........            ",
"          ............          ",
"        .....      .....        ",
"       ...            ...       ",
"      ...              ...      ",
"     ..                  ..     ",
"    ..                    ..    ",
"    ..                    ..    ",
"   ..                      ..   ",
"   ..                      ..   ",
"  ..                        ..  ",
"  ..                        ..  ",
"  ..                        ..  ",
"  ..                        ..  ",
"  ..                        ..  ",
"  ..                        ..  ",
"  ..                        ..  ",
"  ..                        ..  ",
"   ..                      ..   ",
"   ..                      ..   ",
"    ..                    ..    ",
"    ..                    ..    ",
"     ..                  ..     ",
"      ...              ...      ",
"       ...            ...       ",
"        .....      .....        ",
"          ............          ",
"            ........            ",
"                                ",
"                                "};
