/* XPM */
static char *chain_llength_pm [] = {
"16 64 2 1",
". c #000000",
"# c #ffffff",
"................",
"................",
"................",
"................",
"................",
"................",
"................",
"................",
"................",
"................",
"................",
"................",
".......###......",
"......#####.....",
"......#.###.....",
"......#.###.....",
".......###......",
"........#.......",
"........#.......",
"........#.......",
".......#.#......",
"......#.#.#.....",
"........#.......",
"........#.......",
"........#.......",
"........#.......",
"........#.......",
"........#.......",
"........#.......",
"........#.......",
"........#.......",
"........#.......",
"........#.......",
"........#.......",
"........#.......",
"........#.......",
"......#.#.#.....",
".......#.#......",
"........#.......",
"........#.......",
"........#.......",
".......###......",
"......#####.....",
"......#.###.....",
"......#.###.....",
".......###......",
"................",
"................",
"................",
"................",
"................",
"................",
"................",
"................",
"................",
"................",
"................",
"................",
"................",
"................",
"................",
"................",
"................",
"................"};
