/* XPM */
static char * connect_wimp_xpm[] = {
"32 32 6 1",
" 	c None",
".	c #00DEFF",
"+	c #0006FF",
"@	c #FF0066",
"#	c #FFFF00",
"$	c #0060FF",
"                                ",
"                                ",
"                                ",
"                ...             ",
"               .+++.            ",
"               #++ #            ",
"               .++ .            ",
"                .#.             ",
"                 @              ",
"                @               ",
"                @               ",
"                 @              ",
"                  @             ",
"                  @             ",
"                 @              ",
"                 @              ",
"             $$$$#$$            ",
"           $$+++++++$$          ",
"          $+++++++++++$         ",
"          $+++++++++++$         ",
"         $+++++++++++++$        ",
"         $+++++++++++++$        ",
"         $++++++++++++ $        ",
"         $++++++++++++ $        ",
"         $++++++++++++ $        ",
"         $++++++++++++ $        ",
"         $++++++++++++ $        ",
"          $++++++++++ $         ",
"          $+++++++++ $$         ",
"           $$++++++ $$          ",
"             $$$$$$$            ",
"                                "};
