/* XPM */
static char * pixel_cur_xpm[] = {
"32 32 2 1",
" 	c None",
".	c #FFFFFF",
"                                ",
"               .                ",
"               .                ",
"               .                ",
"               .                ",
"               .                ",
"                                ",
"                                ",
"               .                ",
"               .                ",
"                                ",
"                                ",
"                                ",
"                                ",
" .....  ..     .     ..  .....  ",
"                                ",
"                                ",
"                                ",
"                                ",
"               .                ",
"               .                ",
"                                ",
"                                ",
"               .                ",
"               .                ",
"               .                ",
"               .                ",
"               .                ",
"                                ",
"                                ",
"                                ",
"                                "};
