/* XPM */
static char * po_forward_xpm[] = {
"32 21 4 1",
" 	c None",
".	c #FFFFFF",
"+	c #000000",
"@	c #FF6E03",
"                                ",
" .....                          ",
" .+++.+   @                     ",
" .   .+   @+                    ",
" .....+   @+                    ",
" .+++.+   @+                    ",
" .   .+   @+                    ",
" .....+   @+                    ",
" .+++.+   @+                    ",
" .   .+   @+                    ",
" .....+   @+                    ",
" .+++.+   @+                    ",
" .   .+   @+                    ",
" .....+   @+                    ",
" .+++.+   @+                    ",
" .   .+   @+                    ",
" .....+@  @+ @                  ",
" .+++.+ @ @+@+                  ",
" .   .+  @@@+                   ",
" .....+   @+                    ",
"  +++++   +                     "};
